stone01 r 36 373 0 1
stone02 r 267 380 0 1
stone03 r 357 387 0 1
stone04 r 110 270 0 1
stone05 r 40 217 0 1
stone06 r 313 265 0 1
stone07 r 208 160 0 1
stone08 r 120 135 0 1
stone09 r 20 85 0 1
stone10 r 175 80 0 1
stone11 r 72 25 0 1
stone12 r 180 35 0 1
stone13 r 280 50 0 1